{
  "development": {
    "username": "iwzjjyux",
    "password": "yWVU1wGAxFP5cgIr5f8v1fh-cNf1AIYX",
    "database": "iwzjjyux",
    "host": "peanut.db.elephantsql.com",
    "dialect": "postgres"
  },
  "test": {
    "username": "root",
    "password": null,
    "database": "database_test",
    "host": "127.0.0.1",
    "dialect": "mysql"
  },
  "production": {
    "username": "iwzjjyux",
    "password": "yWVU1wGAxFP5cgIr5f8v1fh-cNf1AIYX",
    "database": "iwzjjyux",
    "host": "peanut.db.elephantsql.com",
    "dialect": "postgres"
  }
}
